<!-- Generated by IcoMoon.io -->
<svg version="1.1" xmlns="http://www.w3.org/2000/svg" width="14" height="14" viewBox="0 0 14 14">
<title>check</title>
<path fill="#acacac" d="M3.5 1.313h7v-0.875h-7v0.875zM10.5 1.313c1.208 0 2.188 0.979 2.188 2.188h0.875c0-1.691-1.371-3.063-3.063-3.063v0.875zM12.688 3.5v7h0.875v-7h-0.875zM12.688 10.5c0 1.208-0.979 2.188-2.188 2.188v0.875c1.691 0 3.063-1.371 3.063-3.063h-0.875zM10.5 12.688h-7v0.875h7v-0.875zM3.5 12.688c-1.208 0-2.188-0.979-2.188-2.188h-0.875c0 1.691 1.371 3.063 3.063 3.063v-0.875zM1.313 10.5v-7h-0.875v7h0.875zM1.313 3.5c0-1.208 0.979-2.188 2.188-2.188v-0.875c-1.691 0-3.063 1.371-3.063 3.063h0.875z"></path>
</svg>
