<svg width="16" height="22" viewBox="0 0 16 22" version="1.1" xmlns="http://www.w3.org/2000/svg" xmlns:xlink="http://www.w3.org/1999/xlink">
<title>range</title>
<desc>Created using Figma</desc>
<g id="Canvas" transform="translate(153 53)">
<g id="range">
<use xlink:href="#path0_stroke" transform="translate(-152 -51)" fill="#ACACAC"/>
</g>
</g>
<defs>
<path id="path0_stroke" d="M 7.015 0L 7.6666 -0.758566L 7.0164 -1.31708L 6.36501 -0.759944L 7.015 0ZM 14 6L 15 6L 15 5.54071L 14.6516 5.24143L 14 6ZM 0 6L -0.649988 5.24006L -1 5.53942L -1 6L 0 6ZM 6.3634 0.758566L 13.3484 6.75857L 14.6516 5.24143L 7.6666 -0.758566L 6.3634 0.758566ZM 13 6L 13 16L 15 16L 15 6L 13 6ZM 13 16C 13 17.1047 12.1047 18 11 18L 11 20C 13.2093 20 15 18.2093 15 16L 13 16ZM 11 18L 3 18L 3 20L 11 20L 11 18ZM 3 18C 1.89528 18 1 17.1047 1 16L -1 16C -1 18.2093 0.790715 20 3 20L 3 18ZM 1 16L 1 6L -1 6L -1 16L 1 16ZM 0.649988 6.75994L 7.66499 0.759944L 6.36501 -0.759944L -0.649988 5.24006L 0.649988 6.75994Z"/>
</defs>
</svg>
