<!-- Generated by IcoMoon.io -->
<svg version="1.1" xmlns="http://www.w3.org/2000/svg" width="13" height="32" viewBox="0 0 13 32">
<title>arrowLine</title>
<path d="M5.333 0h2.667v24h5.333v2.667h-2.667v2.667h-2.667v2.667h-2.667v-2.667h-2.667v-2.667h-2.667v-2.667h5.333v-24z"></path>
</svg>
