<!-- Generated by IcoMoon.io -->
<svg version="1.1" xmlns="http://www.w3.org/2000/svg" width="31" height="32" viewBox="0 0 31 32">
<title>case</title>
<path d="M25.103 30.9h-19.31c-3.199 0-5.793-2.593-5.793-5.793v-11.586c0-3.2 2.594-5.793 5.793-5.793h1.931v-0.023h0.007c0 0.008-0.002 0.015-0.002 0.023h3.858v-0.023h-3.855c0.034-4.253 3.48-7.704 7.718-7.704s7.683 3.452 7.718 7.704h-3.855v0.023h3.858c0-0.008-0.002-0.015-0.002-0.023h0.007v0.023h1.931c3.2 0 5.793 2.593 5.793 5.793v11.586c0 3.2-2.593 5.793-5.793 5.793zM15.448 3.884c-2.116 0-3.836 1.72-3.858 3.843h7.715c-0.022-2.123-1.741-3.843-3.858-3.843zM27.586 12.969c0-1.067-0.864-1.931-1.931-1.931h-20.414c-1.066 0-1.931 0.864-1.931 1.931v4.69h4.414v-2.207h4.414v2.207h6.621v-2.207h4.414v2.207h4.414v-4.69zM27.586 22.072h-4.414v2.207h-4.414v-2.207h-6.621v2.207h-4.414v-2.207h-4.414v3.586c0 1.067 0.865 1.931 1.931 1.931h20.414c1.067 0 1.931-0.864 1.931-1.931v-3.586z"></path>
</svg>
