<!-- Generated by IcoMoon.io -->
<svg version="1.1" xmlns="http://www.w3.org/2000/svg" width="24" height="32" viewBox="0 0 24 32">
<title>point</title>
<path d="M16.397 28.573c-0.981 1.432-2.624 2.286-4.397 2.286s-3.416-0.854-4.397-2.286c-5.045-7.367-7.603-12.798-7.603-16.143 0-6.854 5.383-12.43 12-12.43s12 5.576 12 12.43c0 3.345-2.559 8.776-7.603 16.143zM12 3.887c-4.411 0-8 3.833-8 8.543 0 2.456 2.528 7.555 6.934 13.989 0.342 0.499 0.859 0.553 1.066 0.553s0.725-0.054 1.066-0.553c4.407-6.433 6.934-11.533 6.934-13.989 0-4.71-3.589-8.543-8-8.543zM9.143 12.001c0-1.581 1.279-2.862 2.857-2.862s2.857 1.281 2.857 2.862c0 1.581-1.279 2.862-2.857 2.862s-2.857-1.281-2.857-2.862z"></path>
</svg>
